<?xml version="1.0" encoding="UTF-8" standalone="no"?>
<!-- Created with Inkscape (http://www.inkscape.org/) -->

<svg
   width="90"
   height="90"
   id="svg6138"
   version="1.1"
   inkscape:version="1.1.2 (0a00cf5339, 2022-02-04)"
   viewBox="0 0 90 90.000001"
   sodipodi:docname="extended-information_chance-of-sleet.svg"
   xmlns:inkscape="http://www.inkscape.org/namespaces/inkscape"
   xmlns:sodipodi="http://sodipodi.sourceforge.net/DTD/sodipodi-0.dtd"
   xmlns="http://www.w3.org/2000/svg"
   xmlns:svg="http://www.w3.org/2000/svg"
   xmlns:rdf="http://www.w3.org/1999/02/22-rdf-syntax-ns#"
   xmlns:cc="http://creativecommons.org/ns#"
   xmlns:dc="http://purl.org/dc/elements/1.1/">
  <defs
     id="defs6140" />
  <sodipodi:namedview
     id="base"
     pagecolor="#ffffff"
     bordercolor="#666666"
     borderopacity="1.0"
     inkscape:pageopacity="0.0"
     inkscape:pageshadow="2"
     inkscape:zoom="5.0931702"
     inkscape:cx="105.53348"
     inkscape:cy="19.437795"
     inkscape:document-units="px"
     inkscape:current-layer="g6442"
     showgrid="true"
     fit-margin-top="0"
     fit-margin-left="0"
     fit-margin-right="0"
     fit-margin-bottom="0"
     inkscape:snap-global="true"
     inkscape:snap-bbox="true"
     inkscape:bbox-paths="true"
     inkscape:snap-bbox-midpoints="true"
     inkscape:snap-bbox-edge-midpoints="true"
     inkscape:bbox-nodes="true"
     inkscape:object-paths="true"
     inkscape:snap-intersection-paths="true"
     inkscape:object-nodes="true"
     inkscape:snap-smooth-nodes="true"
     inkscape:snap-midpoints="true"
     inkscape:snap-others="true"
     inkscape:snap-object-midpoints="true"
     inkscape:snap-center="true"
     showguides="false"
     inkscape:guide-bbox="true"
     inkscape:pagecheckerboard="0"
     inkscape:window-width="1854"
     inkscape:window-height="1043"
     inkscape:window-x="66"
     inkscape:window-y="185"
     inkscape:window-maximized="1">
    <inkscape:grid
       type="xygrid"
       id="grid6700"
       empspacing="6" />
    <sodipodi:guide
       orientation="0,1"
       position="90,87"
       id="guide4064" />
    <sodipodi:guide
       orientation="0,1"
       position="89,84"
       id="guide4066" />
    <sodipodi:guide
       orientation="1,0"
       position="3,69"
       id="guide4068" />
    <sodipodi:guide
       orientation="1,0"
       position="6,60"
       id="guide4070" />
    <sodipodi:guide
       orientation="1,0"
       position="87,58"
       id="guide4072" />
    <sodipodi:guide
       orientation="1,0"
       position="84,47"
       id="guide4074" />
    <sodipodi:guide
       orientation="0,1"
       position="77,3"
       id="guide4076" />
    <sodipodi:guide
       orientation="0,1"
       position="81,6"
       id="guide4078" />
    <sodipodi:guide
       orientation="1,0"
       position="81,25"
       id="guide4080" />
    <sodipodi:guide
       orientation="0,1"
       position="78,9"
       id="guide4082" />
    <sodipodi:guide
       orientation="0,1"
       position="79,81"
       id="guide4084" />
    <sodipodi:guide
       orientation="1,0"
       position="9,39"
       id="guide4086" />
  </sodipodi:namedview>
  <metadata
     id="metadata6143">
    <rdf:RDF>
      <cc:Work
         rdf:about="">
        <dc:format>image/svg+xml</dc:format>
        <dc:type
           rdf:resource="http://purl.org/dc/dcmitype/StillImage" />
      </cc:Work>
    </rdf:RDF>
  </metadata>
  <g
     inkscape:label="Layer 1"
     inkscape:groupmode="layer"
     id="layer1"
     transform="translate(-283.57144,-358.79068)">
    <g
       transform="translate(169.57144,223.42822)"
       id="g5937"
       inkscape:export-filename="envelope02.png"
       inkscape:export-xdpi="90"
       inkscape:export-ydpi="90" />
    <g
       id="g6442"
       transform="translate(-753.45981,336.4283)">
      <rect
         style="fill:none;stroke:none"
         id="rect1687"
         width="90"
         height="90"
         x="1037.0312"
         y="22.362379" />
      <path
         style="font-style:normal;font-variant:normal;font-weight:normal;font-stretch:normal;font-size:medium;line-height:125%;font-family:Ubuntu;-inkscape-font-specification:Ubuntu;text-align:end;letter-spacing:0px;word-spacing:0px;writing-mode:lr-tb;text-anchor:end;fill:#808080;fill-opacity:1;stroke:none;stroke-width:0.8px;stroke-linecap:butt;stroke-linejoin:miter;stroke-opacity:1"
         d="m 1084.9751,52.388943 c -8.714,0 -16.064,2.301642 -22.05,6.904688 -6.062,4.661314 -9.0938,10.341549 -9.0938,17.042187 1.3608,-1.117355 2.9224,-2.020209 4.6844,-2.707813 1.7763,-0.673277 3.6814,-1.009374 5.7156,-1.009374 2.0342,0 3.9317,0.336097 5.6938,1.009374 1.7762,0.687604 3.3453,1.590458 4.7062,2.707813 1.3609,-1.117355 2.9225,-2.020209 4.6844,-2.707813 1.7762,-0.673277 3.6814,-1.009374 5.7156,-1.009374 2.0342,0 3.9317,0.336097 5.6938,1.009374 1.7762,0.687604 3.3453,1.590458 4.7062,2.707813 h 0.5234 c 1.2647,-0.972295 2.6845,-1.778668 4.2766,-2.4 1.7762,-0.673277 3.6815,-1.009375 5.7156,-1.009375 2.0342,0 3.9317,0.336098 5.6938,1.009375 1.6052,0.621395 3.0323,1.427572 4.2984,2.4 h 0.2922 c 0,-6.700638 -3.0317,-12.380873 -9.0938,-17.042187 -6.0617,-4.603046 -13.4484,-6.904688 -22.1624,-6.904688 z"
         id="path4181" />
      <path
         style="color:#000000;font-style:normal;font-variant:normal;font-weight:normal;font-stretch:normal;font-size:medium;line-height:125%;font-family:Ubuntu;-inkscape-font-specification:Ubuntu;text-indent:0;text-align:end;text-decoration:none;text-decoration-line:none;text-decoration-style:solid;text-decoration-color:#000000;letter-spacing:0px;word-spacing:0px;text-transform:none;writing-mode:lr-tb;direction:ltr;baseline-shift:baseline;text-anchor:end;white-space:normal;clip-rule:nonzero;display:inline;overflow:visible;visibility:visible;opacity:1;isolation:auto;mix-blend-mode:normal;color-interpolation:sRGB;color-interpolation-filters:linearRGB;solid-color:#000000;solid-opacity:1;fill:#808080;fill-opacity:1;fill-rule:nonzero;stroke:none;stroke-width:4.8;stroke-linecap:butt;stroke-linejoin:miter;stroke-miterlimit:4;stroke-dasharray:none;stroke-dashoffset:0;stroke-opacity:1;color-rendering:auto;image-rendering:auto;shape-rendering:auto;text-rendering:auto;enable-background:accumulate"
         d="m 1082.6312,47.536539 v 53.068751 l 0.01,0.0781 c 0.012,0.18135 0.018,0.62435 0.018,1.20781 0,1.53515 -0.3462,2.21112 -0.8032,2.63125 l -0.01,0.005 -0.01,0.006 c -0.5085,0.47419 -1.2722,0.80625 -2.7437,0.80625 -1.465,0 -2.2413,-0.33091 -2.7689,-0.8125 -0.4431,-0.41574 -0.7905,-1.09978 -0.7905,-2.63594 0,-0.58345 0.01,-1.02554 0.017,-1.20156 l -4.7891,-0.32812 c -0.033,0.47859 -0.028,0.94623 -0.028,1.52968 0,2.38645 0.6902,4.6331 2.3204,6.15313 l 0.01,0.006 0.01,0.005 c 1.5772,1.45032 3.7327,2.08437 6.0264,2.08437 2.2915,0 4.4445,-0.63443 6.0109,-2.09219 1.6426,-1.51517 2.3486,-3.76735 2.3486,-6.15624 0,-0.58346 0.01,-1.05018 -0.026,-1.52344 l 0.01,0.15781 V 46.736829 l -4.7999,0.8 z"
         id="path4225"
         inkscape:connector-curvature="0"
         sodipodi:nodetypes="cccscccscsccscccscsccccc" />
      <g
         id="g67"
         transform="matrix(0.8,0,0,0.8,211.12722,-2.0559028)">
        <rect
           style="color:#000000;fill:#808080;stroke-width:2.66641"
           transform="matrix(-0.50004273,-0.86600073,0.86603737,-0.49997927,0,0)"
           height="32.425575"
           width="3.4634442"
           y="870.79596"
           x="-575.11151"
           id="rect14" />
        <path
           style="color:#000000;fill:#808080;stroke-width:2.66647"
           d="m 1053.1746,37.606171 3.4644,-0.61316 v 32.44441 h -3.4644 z"
           id="path12" />
        <rect
           style="color:#000000;fill:#808080;stroke-width:2.66641"
           transform="matrix(0.50004273,-0.86600073,-0.86603737,-0.49997927,0,0)"
           height="32.425575"
           width="3.4634442"
           y="-956.51575"
           x="479.61993"
           id="rect16" />
      </g>
      <path
         style="color:#000000;stroke-width:1.43971"
         d="m 1114.0239,51.294649 c -3.5035,0 -6.3446,-2.839983 -6.3446,-6.342103 0,-0.695528 0.1164,-1.362702 0.3242,-1.989283 0.02,-0.06362 0.037,-0.129254 0.06,-0.192019 0.1615,-0.534458 2.5301,-8.302597 5.9659,-15.272289 v 0.0014 0.0043 0.0043 0.0014 c 3.6706,7.608796 6.0048,15.445021 6.0048,15.445021 0.2065,0.625717 0.3199,1.293754 0.3199,1.989284 0,3.502117 -2.8412,6.342101 -6.3446,6.342101 z"
         fill="#808080"
         id="path6" />
    </g>
  </g>
</svg>
